Latent Factors Recovery from Variables Loadings — model_factors • Dyn4cast
…
#> 25     25  0.406 -0.111  0.298 -0.021
#> 26     26  0.447  0.000  0.375  0.074
#> 27     27  0.374  0.322  0.466 -0.021
#> 28     28  0.018 -0.027  0.388  0.000
#> 29     29  0.209  0.436  0.193  0.316
#> 3       3  0.546 -0.366 -0.168  0.157
#> 4       4  0.624 -0.012  0.126  0.093
#> 5       5  0.563  0.057  0.050  0.088
#> 6       6  0.586  0.331  0.289 -0.197
#> 7       7  0.692  0.201  0.059  0.052
#> 8       8  0.631  0.000  0.137  0.100
#> 9       9  0.118 -0.616  0.083 -0.080
#> 
#> $`Factors extracted`
#> # A tibble: 29 × 5
#>    Factor   MR1    MR2   MR4   MR3
#>    <chr>  <dbl>  <dbl> <dbl> <dbl>
#>  1 1      0.556  0     0     0    
#>  2 10     0     -0.684 0.644 0    
#>  3 11     0     -0.616 0     0    
#>  4 12     0.4    0.514 0.391 0    
#>  5 13     0      0.633 0     0    
#>  6 14     0      0     0.597 0    
#>  7 15     0      0     0.591 0.531
#>  8 16     0      0     0     0.724
#>  9 17     0      0     0     0.801
#> 10 18     0      0     0     0.692
#> # ℹ 19 more rows
…
