Convert Likert Data to Relative Scores and knowledge-based Adaptive Capacity — relative_likert • Dyn4cast
…
#> 18 18  8  3  5  5  2  9  1  2   5   5   2   9   1   2
#> 19 11 12  4  6  5  3  6  1  5   6   5   3   6   1   5
#> 20 10 16  4  2  5  4  7  1  4   2   5   4   7   1   4
#> 21 15 10  3  2  5  3 10  1  4   2   5   3  10   1   4
#> 22 21  2  9  3  4  4  4  2  4   3   4   4   4   2   4
#> 23 14  5  7  3  2  4 10  1  7   3   2   4  10   1   7
#> 24 16  5  9  3  3  1 10  1  5   3   3   1  10   1   5
#> 25 12  5  7  5  3  3 13  1  4   5   3   3  13   1   4
#> 26 15 12  6  2  3  2  7  0  6   2   3   2   7   0   6
#> 27 16  9  2  4  5  1  8  1  7   4   5   1   8   1   7
#> 28 13  6  2  7  5  4  9  1  6   7   5   4   9   1   6
#> 29  2  4 14  0  3 18  0 10  2   0   3  18   0  10   2
#> 
#> $lik_rate
#> # A tibble: 29 × 15
#>       S1    S2    S3    S4    S5    S6    S7    S8    S9   S10   S11   S12   S13
#>    <dbl> <dbl> <dbl> <dbl> <dbl> <dbl> <dbl> <dbl> <dbl> <dbl> <dbl> <dbl> <dbl>
#>  1     0 0.333 0     0     0     0     0     0.333 0     0     0     0     0    
#>  2     0 1     0     0.667 0     0     0.667 1     0     0.667 0     0     0.667
#>  3     0 0     0     0.667 0.667 0     0     0.333 0.333 0.667 0.667 0     0    
#>  4     0 0     1     1     0     0.333 0     0.667 0     1     0     0.333 0    
#>  5     0 0     1     0     0     0.333 0     0.333 0     0     0     0.333 0    
#>  6     0 0     0     0.333 1     1     0     0     0.667 0.333 1     1     0    
#>  7     1 0     0     0.667 0.667 0     0.333 0     0.667 0.667 0.667 0     0.333
#>  8     0 0     1     1     0     1     0     0.333 0     1     0     1     0    
#>  9     0 0.667 0.667 0     0     0.333 0     0.333 0     0     0     0.333 0    
#> 10     0 0     0.667 0.667 0     1     0     1     0     0.667 0     1     0    
#> # ℹ 19 more rows
#> # ℹ 2 more variables: S14 <dbl>, S15 <dbl>
…
#> 18 18  8  3  5  5  2  9  1  2   5   5   2   9   1   2
#> 19 11 12  4  6  5  3  6  1  5   6   5   3   6   1   5
#> 20 10 16  4  2  5  4  7  1  4   2   5   4   7   1   4
#> 21 15 10  3  2  5  3 10  1  4   2   5   3  10   1   4
#> 22 21  2  9  3  4  4  4  2  4   3   4   4   4   2   4
#> 23 14  5  7  3  2  4 10  1  7   3   2   4  10   1   7
#> 24 16  5  9  3  3  1 10  1  5   3   3   1  10   1   5
#> 25 12  5  7  5  3  3 13  1  4   5   3   3  13   1   4
#> 26 15 12  6  2  3  2  7  0  6   2   3   2   7   0   6
#> 27 16  9  2  4  5  1  8  1  7   4   5   1   8   1   7
#> 28 13  6  2  7  5  4  9  1  6   7   5   4   9   1   6
#> 29  2  4 14  0  3 18  0 10  2   0   3  18   0  10   2
#> 
#> $lik_rate
#> # A tibble: 29 × 15
#>       S1    S2    S3    S4    S5    S6    S7    S8    S9   S10   S11   S12   S13
#>    <dbl> <dbl> <dbl> <dbl> <dbl> <dbl> <dbl> <dbl> <dbl> <dbl> <dbl> <dbl> <dbl>
#>  1   0     0.2   0     1     1     0     0     0.2   0     1     1     0     0  
#>  2   0     0.6   0     0.4   0     0     0.4   0.6   0     0.4   0     0     0.4
#>  3   0     0     0     0.4   0.4   0     0     0.2   0.2   0.4   0.4   0     0  
#>  4   0     1     0.6   0.6   1     0.2   0     0.4   0     0.6   1     0.2   0  
#>  5   0     0     0.6   0.8   0     0.2   0     0.2   1     0.8   0     0.2   0  
#>  6   0     0     1     0.2   0.6   0.6   0     0     0.4   0.2   0.6   0.6   0  
#>  7   0.6   0.8   0     0.4   0.4   0     0.2   0     0.4   0.4   0.4   0     0.2
#>  8   0     0     0.6   0.6   0     0.6   0     0.2   0     0.6   0     0.6   0  
#>  9   0     0.4   0.4   0.8   0.8   0.2   0.8   0.2   1     0.8   0.8   0.2   0.8
#> 10   0     0     0.4   0.4   1     0.6   0     0.6   1     0.4   1     0.6   0  
#> # ℹ 19 more rows
#> # ℹ 2 more variables: S14 <dbl>, S15 <dbl>
…
#> 18 18  8  3  5  5  2  9  1  2   5   5   2   9   1   2
#> 19 11 12  4  6  5  3  6  1  5   6   5   3   6   1   5
#> 20 10 16  4  2  5  4  7  1  4   2   5   4   7   1   4
#> 21 15 10  3  2  5  3 10  1  4   2   5   3  10   1   4
#> 22 21  2  9  3  4  4  4  2  4   3   4   4   4   2   4
#> 23 14  5  7  3  2  4 10  1  7   3   2   4  10   1   7
#> 24 16  5  9  3  3  1 10  1  5   3   3   1  10   1   5
#> 25 12  5  7  5  3  3 13  1  4   5   3   3  13   1   4
#> 26 15 12  6  2  3  2  7  0  6   2   3   2   7   0   6
#> 27 16  9  2  4  5  1  8  1  7   4   5   1   8   1   7
#> 28 13  6  2  7  5  4  9  1  6   7   5   4   9   1   6
#> 29  2  4 14  0  3 18  0 10  2   0   3  18   0  10   2
#> 
#> $lik_rate
#> # A tibble: 29 × 15
#>       S1    S2    S3    S4    S5    S6    S7    S8    S9   S10   S11   S12   S13
#>    <dbl> <dbl> <dbl> <dbl> <dbl> <dbl> <dbl> <dbl> <dbl> <dbl> <dbl> <dbl> <dbl>
#>  1 0     0.143 0.857 0.714 0.714 1     0     0.143 1     0.714 0.714 1     0    
#>  2 0     0.429 0     0.286 0     0     0.286 0.429 1     0.286 0     0     0.286
#>  3 0     0     0     0.286 0.286 0     0     0.143 0.143 0.286 0.286 0     0    
#>  4 0     0.714 0.429 0.429 0.714 0.143 0     0.286 0     0.429 0.714 0.143 0    
#>  5 0     0     0.429 0.571 1     0.143 0     0.143 0.714 0.571 1     0.143 0    
#>  6 0     0     0.714 0.143 0.429 0.429 0.857 0     0.286 0.143 0.429 0.429 0.857
#>  7 0.429 0.571 0     0.286 0.286 0     0.143 0     0.286 0.286 0.286 0     0.143
#>  8 0     0     0.429 0.429 0     0.429 0     0.143 0.857 0.429 0     0.429 0    
#>  9 0     0.286 0.286 0.571 0.571 0.143 0.571 0.143 0.714 0.571 0.571 0.143 0.571
#> 10 0     0     0.286 0.286 0.714 0.429 0     0.429 0.714 0.286 0.714 0.429 0    
#> # ℹ 19 more rows
#> # ℹ 2 more variables: S14 <dbl>, S15 <dbl>
…
#> 18 18  8  3  5  5  2  9  1  2   5   5   2   9   1   2
#> 19 11 12  4  6  5  3  6  1  5   6   5   3   6   1   5
#> 20 10 16  4  2  5  4  7  1  4   2   5   4   7   1   4
#> 21 15 10  3  2  5  3 10  1  4   2   5   3  10   1   4
#> 22 21  2  9  3  4  4  4  2  4   3   4   4   4   2   4
#> 23 14  5  7  3  2  4 10  1  7   3   2   4  10   1   7
#> 24 16  5  9  3  3  1 10  1  5   3   3   1  10   1   5
#> 25 12  5  7  5  3  3 13  1  4   5   3   3  13   1   4
#> 26 15 12  6  2  3  2  7  0  6   2   3   2   7   0   6
#> 27 16  9  2  4  5  1  8  1  7   4   5   1   8   1   7
#> 28 13  6  2  7  5  4  9  1  6   7   5   4   9   1   6
#> 29  2  4 14  0  3 18  0 10  2   0   3  18   0  10   2
#> 
#> $lik_rate
#> # A tibble: 29 × 15
#>       S1    S2    S3    S4    S5    S6    S7    S8    S9   S10   S11   S12   S13
#>    <dbl> <dbl> <dbl> <dbl> <dbl> <dbl> <dbl> <dbl> <dbl> <dbl> <dbl> <dbl> <dbl>
#>  1 0     0.111 0.667 0.556 0.556 0.778 0     0.111 0.778 0.556 0.556 0.778 0    
#>  2 1     0.333 0     0.222 0     0     0.222 0.333 0.778 0.222 0     0     0.222
#>  3 0     1     0     0.222 0.222 0     0     0.111 0.111 0.222 0.222 0     0    
#>  4 0     0.556 0.333 0.333 0.556 0.111 1     0.222 1     0.333 0.556 0.111 1    
#>  5 0     0.889 0.333 0.444 0.778 0.111 0.889 0.111 0.556 0.444 0.778 0.111 0.889
#>  6 0     0     0.556 0.111 0.333 0.333 0.667 0     0.222 0.111 0.333 0.333 0.667
#>  7 0.333 0.444 0     0.222 0.222 0     0.111 0.889 0.222 0.222 0.222 0     0.111
#>  8 0     0     0.333 0.333 0     0.333 1     0.111 0.667 0.333 0     0.333 1    
#>  9 0     0.222 0.222 0.444 0.444 0.111 0.444 0.111 0.556 0.444 0.444 0.111 0.444
#> 10 0     1     0.222 0.222 0.556 0.333 1     0.333 0.556 0.222 0.556 0.333 1    
#> # ℹ 19 more rows
#> # ℹ 2 more variables: S14 <dbl>, S15 <dbl>
…
relative_likert(Quicksummary, Ranks = 5, Option = "sccore")
#> Preliminary check success, proceeding... 
#> Likert lenght check success, proceeding... 
#> Success, DONE! 
#> $lik_num
#> # A tibble: 103 × 29
#>    `Likert scores 1` `Likert scores 2` `Likert scores 3` `Likert scores 4`
#>                <dbl>             <dbl>             <dbl>             <dbl>
#>  1                 5                 4                 4                 2
#>  2                 5                 4                 4                 2
#>  3                 5                 4                 1                 2
#>  4                 5                 4                 4                 2
#>  5                 5                 4                 4                 2
#>  6                 5                 4                 4                 2
#>  7                 5                 4                 4                 1
#>  8                 5                 4                 4                 2
#>  9                 5                 4                 4                 2
#> 10                 5                 4                 4                 1
#> # ℹ 93 more rows
#> # ℹ 25 more variables: `Likert scores 5` <dbl>, `Likert scores 6` <dbl>,
#> #   `Likert scores 7` <dbl>, `Likert scores 8` <dbl>, `Likert scores 9` <dbl>,
#> #   `Likert scores 10` <dbl>, `Likert scores 11` <dbl>,
#> #   `Likert scores 12` <dbl>, `Likert scores 13` <dbl>,
#> #   `Likert scores 14` <dbl>, `Likert scores 15` <dbl>,
#> #   `Likert scores 16` <dbl>, `Likert scores 17` <dbl>, …
#> 
#> $lik_rate
#> # A tibble: 103 × 29
#>    `Likert scores 1` `Likert scores 2` `Likert scores 3` `Likert scores 4`
#>                <dbl>             <dbl>             <dbl>             <dbl>
#>  1                 1               0.8               0.8               0.4
#>  2                 1               0.8               0.8               0.4
#>  3                 1               0.8               0.2               0.4
#>  4                 1               0.8               0.8               0.4
#>  5                 1               0.8               0.8               0.4
#>  6                 1               0.8               0.8               0.4
#>  7                 1               0.8               0.8               0.2
#>  8                 1               0.8               0.8               0.4
#>  9                 1               0.8               0.8               0.4
#> 10                 1               0.8               0.8               0.2
#> # ℹ 93 more rows
#> # ℹ 25 more variables: `Likert scores 5` <dbl>, `Likert scores 6` <dbl>,
#> #   `Likert scores 7` <dbl>, `Likert scores 8` <dbl>, `Likert scores 9` <dbl>,
#> #   `Likert scores 10` <dbl>, `Likert scores 11` <dbl>,
#> #   `Likert scores 12` <dbl>, `Likert scores 13` <dbl>,
#> #   `Likert scores 14` <dbl>, `Likert scores 15` <dbl>,
#> #   `Likert scores 16` <dbl>, `Likert scores 17` <dbl>, …
…
 ranking <- c("Serious constraint", "Constraint",
"Not certain it is a constraint", "Not a constraint",
"Not a serious constraint")

 relative_likert(data_l, Likert = ranking)
#> Preliminary check success, proceeding... 
#> Likert lenght check success, proceeding... 
#> Success, DONE! 
#> $lik_num
#> # A tibble: 29 × 15
#>       S1    S2    S3    S4    S5    S6    S7    S8    S9   S10   S11   S12   S13
#>    <dbl> <dbl> <dbl> <dbl> <dbl> <dbl> <dbl> <dbl> <dbl> <dbl> <dbl> <dbl> <dbl>
#>  1     0     5     0     1     1     0     0     5     0     1     1     0     0
#>  2     0     3     0     4     0     0     4     3     0     4     0     0     4
#>  3     0     0     0     4     4     0     0     5     5     4     4     0     0
#>  4     0     1     3     3     1     5     0     4     0     3     1     5     0
#>  5     0     0     3     2     0     5     0     5     1     2     0     5     0
#>  6     0     0     1     5     3     3     0     0     4     5     3     3     0
#>  7     3     2     0     4     4     0     5     0     4     4     4     0     5
#>  8     0     0     3     3     0     3     0     5     0     3     0     3     0
#>  9     0     4     4     2     2     5     2     5     1     2     2     5     2
#> 10     0     0     4     4     1     3     0     3     1     4     1     3     0
#> # ℹ 19 more rows
#> # ℹ 2 more variables: S14 <dbl>, S15 <dbl>
#> 
#> $lik_rate
#> # A tibble: 29 × 15
#>       S1    S2    S3    S4    S5    S6    S7    S8    S9   S10   S11   S12   S13
#>    <dbl> <dbl> <dbl> <dbl> <dbl> <dbl> <dbl> <dbl> <dbl> <dbl> <dbl> <dbl> <dbl>
#>  1   0     1     0     0.2   0.2   0     0     1     0     0.2   0.2   0     0  
#>  2   0     0.6   0     0.8   0     0     0.8   0.6   0     0.8   0     0     0.8
#>  3   0     0     0     0.8   0.8   0     0     1     1     0.8   0.8   0     0  
#>  4   0     0.2   0.6   0.6   0.2   1     0     0.8   0     0.6   0.2   1     0  
#>  5   0     0     0.6   0.4   0     1     0     1     0.2   0.4   0     1     0  
#>  6   0     0     0.2   1     0.6   0.6   0     0     0.8   1     0.6   0.6   0  
#>  7   0.6   0.4   0     0.8   0.8   0     1     0     0.8   0.8   0.8   0     1  
#>  8   0     0     0.6   0.6   0     0.6   0     1     0     0.6   0     0.6   0  
#>  9   0     0.8   0.8   0.4   0.4   1     0.4   1     0.2   0.4   0.4   1     0.4
#> 10   0     0     0.8   0.8   0.2   0.6   0     0.6   0.2   0.8   0.2   0.6   0  
#> # ℹ 19 more rows
#> # ℹ 2 more variables: S14 <dbl>, S15 <dbl>
…
